*** Life<FredkinCell> 42x14 ***

Generation = 0, Population = 86.
0----0----0--0
-0-------0----
------0-----0-
---------0----
--------------
-0-0-0--------
--------------
---------00--0
----0---------
-0--0---------
0---0---00----
---0----------
--0-----------
------0-------
-0------0-----
--------0--0--
--------0-----
-------------0
-0-0--------0-
-------00-0---
-0----0--0----
--------------
--------000---
--------------
0----------00-
--0--0--------
--0-0-----0-0-
00-----0------
----------0---
--------0-0---
0-0-00---000--
-0------------
--0--00-------
---0-0--------
-0---0--0-----
---------0----
----0------0--
---------00-0-
0-------------
--0-------0---
0---0---------
---0----------

Generation = 1, Population = 207.
----0-0----00-
--0--00-0---00
-0---0-0---0-0
------0-0-0-0-
-0-0-0---0----
0-----0-------
-0-0-0---00--0
----0---01100-
-0-010---00--0
--00-0--00----
----10-0110---
0-------00----
-0----0-------
-00--0-00-----
0-0---0010-0--
-0-----0-00-0-
-------010-0-0
-0-0----0-----
0---0--00-00--
---0---110-00-
0-0--0--------
-0----0-0-0---
-------01-10--
0-------00000-
-00--0----0110
0010--0---00--
0-1----0-0---0
11--0-0-0---0-
00-----00010--
0-0-00-0-0----
-0--110--1110-
--0-0-0--000--
----0-10------
-0------0-----
0-000100------
-0--00----00--
---0-0--------
0---0---0110-0
-00------0--0-
-0-00----0-0--
-00--0----0---
0-0-----------

Generation = 2, Population = 204.
--00-0100-01--
---0---0-0-0--
0---01--0----1
---0-0-0-0-0--
------0-----0-
-0---0-0--0--0
----0---------
---010-01---10
0-0-2-0-01----
--1---0--10--0
0-0-2--1--10--
----000-------
-1-------0----
---00------0--
--10--1-2-0---
---------11---
---0--0-2-0-0-
-------0--0--0
---0-00-101---
-----00-210-10
-0--0--0-0000-
-------01-1---
00-----1202---
--0--0--------
0---0---0-1-21
-1-10---------
--2-0-0-0--0--
2--0----100---
1----0--11-1--
1-----010-0-0-
--0022--022210
-----0--0-1---
-0001--1-000--
---0-0-0-0----
--1-12-1--00--
---0-1-0-0110-
000--10-00---0
--0----012-10-
--1--------0--
0--11---010---
------0-------
-010-0----0---

Generation = 3, Population = 274.
-01--1-1101-0-
0--1---1--0100
-0-01-00-0--0-
0-0-010-0----0
-0-0-0-0-00---
0-0---0-00-0--
-0--10--0-0-0-
0--1-101---021
--103010----0-
-0-0-01-----0-
--1-3-0-1--100
0000--1--000--
0-00-00-0-00--
-0--100-00--0-
-02--0---01---
--0-----02200-
--0-00-0-0----
-----00-0--0--
--0----0-1200-
-0-0---1--10-1
0-00---1------
0---0-01----0-
11---00-3--0--
---0--00-0--00
--0-1--0----32
--12100---0000
0---1---1---0-
31---0002110--
-0-00---2-----
2000001-1-1-1-
001-----1---21
-0--010-1--000
01-120120-110-
-001-1---10---
-0--23--00----
000-0-010-221-
1---0-1--1--0-
0--0-0-12---1-
002-0--0---1--
-0-220001-1---
000-0--000----
01-1-----0-0--

Generation = 4, Population = 213.
-12-0------11-
-0-2-0---0---1
0-0--1--0---11
-----2---00---
0---01----1--0
----00-0------
0---2-0-10--1-
---2-21----1-2
0-2-----0-----
0--1--2-0-----
002--0------11
-------00111-0
1---0-1-1-----
-10-2-----0--0
0--0-1--21----
---00---1-3-10
-01-1-0--1--0-
------1--0-1--
-----0-1123-1-
---10-0-2---1-
101-----0-0000
--0--0-------0
-200-11---2-00
00------0-0---
-01-2-01001-43
01----1-001---
1-2-20--2--01-
--0001-----1--
1-0--0-----10-
--111-2-----2-
-------0-22-3-
0----2-0-0----
120-3-2--0-2--
-1-----00---0-
--1-------000-
-11--1----3--0
--0-11200----0
------0-3---20
-13-10--0-----
0--3-----1----
--1-1---1--0--
--1----0-1--0-

Generation = 5, Population = 302.
0-30-----0122-
-1--010---0102
-0--1-00-0002-
--0---0--1-00-
-0-0-200--200-
---01-0--00-00
-0--3-10210---
----13-1-11-2-
1--0-0-011-0-0
--1-0---11--00
--3-3--1-11-2-
-00-00-11--201
--001--02--0--
02103-0----00-
---1--10-21-0-
00----002----1
01202-10-2--1-
-00-0-2---0-0-
---0---2234020
00-210-1------
2---00011-1-1-
00--01--1--00-
--11--21303-1-
110000--10-0--
012------12-54
--1---2011---0
2030---03---20
-11-120-2-1-0-
---001----1--0
20--20---01--0
0-1022-1--3-41
1-0---01---00-
-31--0-2-1----
-20-0--11-0010
-020-3-100----
0220-2-1004--1
--1-223--10---
-0---011-2-13-
-24021-01---00
--0-20--1-10--
0020-0---00---
-1210-0-0-0--0

Generation = 6, Population = 312.
-141-11-1123--
-2-------01--3
01-02111--1-3-
-0--0--002-110
0-0103-100-11-
--0--0-0--10-1
0-0--0-1--10-0
00----1--2-1--
-0---1--220--1
00211--0-2----
------02--21-1
011011-2----12
11112----00-00
1-2---1000---0
---2-12-23201-
----001-323-1-
--3---2-2--02-
----1-300011--
0--100----5-31
-1--2-0-21-0-1
-0--1--2---020
-1----01--1110
-2--013--14-20
-2-1-1---1--00
-23-200102316-
-1---0312---0-
31-1-00-4-00--
-----3103-2-10
1--1-2--2--1-1
-1-131211120--
-0--3-021-42--
20--021210-1--
--21--2-0----0
0311-102--1--1
-1--24-2--000-
13--0-0-1--21-
10203--0-2--00
0100012-3312--
0-5-320---01-1
00---10-21-1-0
11---1--111--0
--3210---1100-

Generation = 7, Population = 293.
0--2-22-223420
----0--1--2---
12-13----02041
01-0-2-11-0--1
-0--1--21-22-0
-0---------102
101031122--1-1
-----3---3-22-
1--0----3-1-0-
11--2--11300--
------131-3222
-221221311---3
22-2--1---1--1
22303---110001
0---0-303-3---
--0-112-43---1
-1-0---0-20--0
0-0-20--1-2-00
--02-102-36-4-
-20--0-13211--
2-102003-0-131
0-0-----1--2-1
1-1-12--3--031
1-0---00--0-1-
03403-1213--7-
---2-1-23--010
4----11----120
-1--142-4-3-2-
--020-00--1202
-2--4232--3120
--1---1-2--34-
3------3-11200
-3---0--1-1201
142-0-1--12--2
0------3-0-1--
-4---2------2-
2-314-3--3-0-1
12-1-2-1442---
--60--10-0-2-2
1----2-----2--
---0---0---0-1
0-4---0---2-1-

Generation = 8, Population = 216.
-14-03313-4--1
-2-21----0-1--
---------1----
-2-1-----2-1--
--0---0-----1-
---0-00----2-3
21---2--3-1--2
-00--4-11-1---
2-2--1--4-2-11
-22--0------00
0-30----2--3--
---2---42212--
-3--2-2--02---
33-1-0--------
1----1--4-4-1-
0--0------3-12
----2------0--
-01-3--0------
0-1302----705-
-312---2--2-11
302--1---112--
------0-2-1---
----23--41--4-
-2------1--0--
--5140--24----
-1-312----1---
---1-2--------
-----530--4--0
-01-1-1--123--
2-1------1----
0--03-2---4451
--0--2---22---
14--------2312
-53--1-----0-3
112-24---10--0
1--0---1---2--
3-425----40-0-
-3--0-----32--
--7-322-1103--
-00-2----11-0-
----11--1--10-
-----0---1-0--

Generation = 9, Population = 278.
0-52----42--2-
0303--01-12-03
----3---0-2---
0-0-0-0-13----
---1--12-0-2--
00-----00---04
3--03---4-2-13
0--21--22--22-
---03-1-5-3---
133-212---0---
-0--30--3--4-2
02-3---5332-1-
-412-0--------
----31--11--0-
----0230--5-2-
100--1--4340-3
013-30-0-----0
-1-0--3-1-2-0-
--24130--3----
0-----0-3----2
41--2--3-2-3-1
010-01--3-2-1-
-2-134-152---1
1--1---0-10---
-3625-12-5-1--
0-14233-3--0--
-1322--0-----0
-110--414-5-2-
-1---22-2-3402
322-----123-20
101142-2-2---2
--------1332--
2-2--------4--
16-1-21--1211-
-2-03-03021101
--21020-1-4--1
4053-2-005---1
--0---2-444---
-28-4-3-22----
11---20-2---10
-120--00-1---1
-----10----1--

Generation = 10, Population = 296.
11--0-3-5--43-
--1--112-----4
-2--41--1-3041
---11-11---1--
-0---3---1---0
-10-1-----1---
--1--2-2---12-
100324-33313--
-0--41206-4-1-
244132-1-31--0
0-------4-3-2-
1324--164-32--
----2120--2---
-33--2--22-011
1022---143603-
-1-01--05-5114
---04-2-22-0-1
-2-13040-0----
0-35--122---51
1-12--12-2-113
5--03-----1-32
--101-014--2-1
131-4---6-4---
-2--01--121--0
047--0--26327-
--2-------1110
------114-01--
322----2--6130
--1213-0-14---
----4-3--3-1-1
-12--3----44-3
-0-002--24--00
34---02-1-2---
--3203----3---
-321--1-13-21-
14--13----5---
5---53-1--0-02
13--0-315-52-0
-----2--3---02
2203-31031-22-
---111111-11-2
-14212---12-10

*** Life<FredkinCell> 40x11 ***

Generation = 0, Population = 95.
-------0---
0--------0-
--0----0---
-0----0----
--0---0---0
---00------
0----0-0--0
------0----
--0---0----
0-0--------
---0-------
0----------
00---0-----
0---00---0-
-----------
----000----
--00----0--
----0--0---
0----0---00
-----0-00--
-0----0-0--
----000-0--
0----------
--0-0--0-0-
---0----0--
0----------
--00--0---0
0---0----0-
-0-0-----0-
---------0-
-0--0-0----
---0--0----
----------0
--0-0------
-00----00--
0--00------
----0-----0
00-------0-
-----0---0-
----0--0---

Generation = 3, Population = 240.
0-100--00-0
--2000--0-0
-01-1-1-0-1
20--0-1-1--
001002--00-
00--112-00-
1-1--101220
2--10--0--0
--120-12---
1-30-02-0-0
--10--10-0-
-0--12-00-0
3-2-0-0-00-
-002--000--
--11---01--
1--131----0
--1---2-0-0
00---1-11--
12-00--0--3
0001-1-111-
--01-230-20
00--11--1-1
1-2-0--00-0
-0-0-0-1-10
2-11--0-00-
-000--0--00
-0--0--0111
0-0-002-030
00-0-1--00-
--0220--030
---01030--1
0-200-1---0
-----021---
003-00-0-0-
-10-0--11-1
0--11-1-0-0
0-0---11--1
----0000-1-
0001--00-1-
1-10---10-0

Generation = 6, Population = 241.
-0--10-3-21
---30-11--0
21--12-10-4
2--0-0--210
3010--121-2
3-0-2-32-10
22220-1--3-
5-3-10301-1
02--032-011
--61----1-0
01--0-10-00
312---0-11-
313--1--131
-1---01----
11---01010-
12-13-22--3
-2--3030--3
-1-0-22121-
-5---------
0--2----121
-0-1--3013-
-1211-02-1-
4---3--1-21
2---21-211-
3--201--3-2
0--0123---1
0312112--2-
-102---0-30
1---0100-33
2-3251--060
-0312-4-11-
1-3--222--1
-2-03-5--20
--401--0-1-
--0210-1-34
102-22-0-00
---12--11--
-1--11-3---
----00-1-4-
---1----1-1

Generation = 9, Population = 210.
203----403-
---63342-00
22-3--4201-
24-1-----2-
41-0--15-03
-0--5--2--1
-3-2--2--6-
6---4--02-2
--3---241-4
-0--0-5--11
1131-11-0--
--201-1212-
--4-1-4---4
-1-32-12112
1212--13---
-5-24255---
12--41313--
0-1--23-2--
36-0-4-01--
-42-22-4132
-1--1--14-0
-232----4-2
--2-4-1-2-2
--13----2-0
-0---23-6--
0-3----2--2
-6-32---3--
32---2---41
-1--1--0-6-
-03-6-3-1-0
-14-2-51---
--6----312-
-22140--2--
2--0--13---
2135-0-2--4
--3----0-0-
--0-3---2--
3-1--11313-
0---1--435-
---2-0-----

*** Life<FredkinCell> 43x14 ***

Generation = 0, Population = 83.
---0----000---
0----00-----00
------0-----0-
--------------
----------0-00
----0-----0---
--------------
---0----------
000-0-0----0-0
0---00--------
-0---0-0-----0
---------0----
--------------
---0------0---
0----------0--
----0---------
------------0-
-0--0---------
------0--0----
---0----------
-0------------
----0--0----0-
--0----0------
0----0-0----0-
-------------0
---------0-0-0
---0----0-0---
--0----0-----0
--------------
-0------------
-------------0
--------------
-0-0----------
----------0---
---------0----
--0-------0---
-------------0
0-0-----------
-0----------0-
------0----0--
--0-----------
-0-----0------
----0--0------

Generation = 2, Population = 238.
-0-0-1-1-0-1--
0-011--11-11-2
---00----00-20
0---001---1-01
------0-0-20-2
--01--0-0---1-
000-1-0---100-
11--------0---
-0-1-10100-0-0
2-----01-0----
001-0200-1----
0--001-1--10--
00---0-0---0-0
-0--10--01--0-
0-0------0--10
-0010-0---0---
0-----0--001--
--1-0-1-------
-1--1--11--00-
-----0-0----0-
--11--01-0----
0-11--12-00-0-
11--11---0---0
0-1010----0100
--00---10-01-2
0-0--0-0-0--02
-0---00-0-0-00
01--00--------
---0----0-0--1
--10---0-----1
-1-0-------0-0
-1--------0---
-0-0-0---0---0
--0-----0-0-0-
-0-0---0---0-0
--0-0---0-0-0-
-0-------0-010
----0-0---00--
--00------0--1
011-0--100---0
00-----1----0-
---0-01--0-0--
----0112-0----

Generation = 4, Population = 219.
----11-3--2-1-
01---11-3--1-4
--00-----2--2-
---0----------
10111-----2-14
1---0---2---30
-2---021----01
-------1-0----
-2--132300-00-
4111----10----
2--1-4-----1--
---223-------1
001-1-0----210
12---010------
-02-011--2----
1--1----01----
-0------1---1-
10-020-01-1-1-
1----0-1--12-1
0---00------2-
-1---0------00
21-10----2--00
3-------1211--
-1--3--210-302
-1-------1-1--
-1--12---0-00-
--0-0-2-----00
---0-000-0--1-
-1-2---------3
-0---0---011-1
---2----0-00--
-------0--0--0
-2---0-0-----0
010---0-------
-0---0------0-
0-----0----0--
-000-----0-0--
011-0-01--0---
-0--10-110--1-
-------1-----2
0---1-03-----0
1-10-0-2---0--
0000----0--10-

Generation = 6, Population = 288.
----3-1-1---1-
2-121-323011--
--202-----20-1
----0-1----00-
--1-1--021211-
3--2---0-1-1-2
0-101-2-------
-20010-1---101
041133252---2-
-31---2--010-0
-0-1----1-----
-1------00-0-3
023-3---0-1---
--1----2-----1
----2--------1
121111-10--01-
12101--0-123-1
10-220-0------
1-01---3---401
2--1-21-00---1
-----2--0201--
---3--1-0410--
5-0--1001-1---
1-2----4---5-4
1-200-021-0-1-
-31114--120---
0-01--4-000---
-2-2----00-131
-30-101-0-1-0-
---1-01-0-3--3
-3-2--00012-11
0-0---1-0-2-1-
-4-0---2101-12
2-21--000-00-1
--00-0---000-1
0-1----1011--0
10-2-0--1--2-1
2--1-1-1-1-010
02-21213-----2
-3-00-0--20--4
--10--251----2
-1101---------
-----3-302-12-

Generation = 8, Population = 221.
---15-3---3211
-2--3-32--3--5
11--41-11-2-3-
---------1----
--1-31002-2-1-
5--4-00------2
2--0----0110--
---01------3--
2-1-5-47-1----
4-1-10--2-----
-0-----2----0-
-1-3-------0--
-4--------1-10
--31---2---02-
--30--1013----
1-33-3-1------
323---1-2--3--
3-1-4------030
1--3-0-52-26-1
--03---1-0-0-3
-----4---2----
-1132---2-1-10
7---2-----32--
-2----1-------
-2-2-1-4----1-
---136-1-421--
0-03--4---002-
--0412-2-----3
-3-----------5
0-2-10-1-2--1-
-31--0------1-
0----131---01-
--02-0---0-1-2
-22----2-020-1
-2-00--01-00--
----0--3-----0
----02--------
----2-231-0---
--0-34--21---2
0--2--0--4-1--
---22-----1-1-
2-3--0---20--1
--2------4--4-

Generation = 10, Population = 298.
0-135--3213-11
--23323----117
3-32-----3-131
11-000----21--
211-5------1--
710--0-123---2
-32---32---0-2
-2-011--11----
44-3-56---1-3-
-5-1---3--1---
32221622----01
11--4--211-014
-63---1--113-2
--3-30-4--02-2
-15----0-5--22
345------2---0
5--0-0--2--5--
3---413---2--0
---5-0-5-14-1-
---32--31-12--
----04-31--2-0
2---202326--3-
73-0--212----2
-43240-4-1-614
-4341-26-22-1-
----36-32--11-
-105---1-00---
-3--1-22-01-45
03---11---2--7
0-4--0---24-34
151400-0-230--
-101---31--01-
140----222312-
---3--241--2-3
-4--0---31001-
-1--00--1-----
-1---40--013-2
2-22-143--0112
1-0-36------22
-5----0----1--
-01-4-3---3--3
2-5-2-2-12-211
1-41---4-6-3--

*** Life<FredkinCell> 42x17 ***

Generation = 0, Population = 80.
-------------0---
----------0------
0-----0----------
---0--------0--0-
----0-0---0------
---0-0-----------
--0-0000--0------
-----------------
-----0-----------
-0--0-0----------
----------00-----
-------0---------
-----------------
-----------0-----
--0--0---00------
---------0-----0-
------0----------
---0-------0-----
-----------------
-----------------
--------0--------
--0------------0-
--0---0-------0--
---------0-------
------0----------
----0----0-------
------------0---0
--------0---0----
0-----0---0------
-0------------0--
---------0-------
-0---0--------0-0
0-0-0-----------0
------0----------
-------0---------
-00------------0-
--------00-------
0-0--------------
------00---0-0---
-----------------
0-------------0--
-----0-----0-----

Generation = 9, Population = 367.
--10-12212-20-0-0
-11--1--2-21-013-
--1---20-01--31-0
0--0102-1---1-34-
-0-003-1--313340-
-10--53----00-00-
5244533-14-1-2113
1-1-112-021-1--1-
---0---1--112-01-
24----2-02--1---0
1--22--0-311---12
0--3----1-04-0-30
--0--4-----20----
-232-1-32-0--10-0
--1125-113-1142--
-------2----01--0
-2--13-------2---
--1---100-01-----
-0----101-51-0---
-------212--10---
-0--22-002201-00-
---23-4-001110100
-0---25--000----0
0---240-3-0-122--
--30-050-2-010203
1452013-3--442--0
2---20-33---303-0
----7120-41--02--
-0101-2-2-2-014-2
1---13---21---1--
--21--0--0----1--
-20--441---2--1--
20--311-103-4040-
2422-42-1---003-3
0----1-42-0-11-43
22-1-1-1----1110-
1-3--11----0322--
032--1-1-11--2-11
40--0-340-1-02-10
4----3-0---4001-2
40-1--1-3-22--202
10-4-0-2-1----0-0

*** Life<FredkinCell> 50x15 ***

Generation = 0, Population = 81.
-0--0-0-0--00--
--------------0
-------0---0---
---------------
------0--------
--0------------
---------------
0----0------0--
-------0-------
---------------
------0-----0--
---------------
-0--0----------
---------------
-------0--0---0
---------------
--0------------
----0-0-----0--
0---------0----
---------------
----00---------
----0---------0
0-------0------
-----0--0------
---------0-----
--0------0-----
-0----00-0--0--
---0--0-----0--
-----0-0--0---0
-----------0---
-------00------
-00-0------0---
--------------0
-------0-------
---------0--0--
--0------------
----0----------
---------------
---------0-----
--------0------
-----------0---
---------------
----0-0-------0
---------------
----0-0--0-----
---0-----------
----------0----
0---------0----
-----------0--0
-------00------

*** Life<FredkinCell> 44x12 ***

Generation = 0, Population = 85.
------------
------------
----0-0-----
---00----00-
------------
--------0---
0----0-0-00-
---0----0---
--0---0-0--0
--00--0-----
-----------0
--------0---
---0-0---0--
---0--0--00-
--0----0--0-
-------0-00-
----0-0---0-
-------0--0-
-----0----0-
--0---------
-0---0------
--0-0-0-----
-0---0------
-----------0
----0-------
----------0-
-0---------0
--------00--
----------0-
--0---------
---0-------0
------00----
---0------0-
----------00
------------
0-----0---00
-0-0--------
------------
-----------0
------------
------------
-0--0----000
-----0-000--
-----------0

*** Life<FredkinCell> 44x11 ***

Generation = 0, Population = 58.
0-00-------
-0---------
0----0-----
-----------
-----0---0-
-----------
----------0
-----0-----
-0---------
--0--------
-00--0-----
-0-----00--
-0-------0-
-----------
---------0-
0----00----
-----------
--0--------
--0------0-
-00--0-----
-----------
-----------
-----------
----00-----
----0--0--0
-----------
------0----
---00---0--
----------0
----0---0--
0--0-------
-----------
-----------
-0-------0-
-----------
-0---------
--0--------
----------0
-------00--
-----------
-----------
------0----
-00--0-0---
----0-----0

Generation = 2, Population = 159.
-1-21------
---1-------
-----0-0-0-
-0---------
0--0-0----1
-----1-----
-0---1--010
--00---0---
-000-1----0
01--01-00--
1---1--1-0-
--00-11--00
-210-0-1-0-
01---0000--
-0-----0-0-
0--01--10--
--1--------
-12-0-0----
0---0--0---
1-0-1--0---
--1------0-
-00-0------
----1--0--0
--01--11---
--0--0--110
---0-0--0--
-------11--
-01-21--0-1
0--1--0-0-0
--000---0-1
011--0----0
-0--0---00-
0--0-------
-0-0---0---
--0--------
-0-0-----00
0---0--00--
-0------1-0
--0--01--11
------0---0
-00--0--0--
--------0-0
1---00-0-0-
--1-0---0--

Generation = 4, Population = 147.
--1-3-00-0-
-----1-----
01-11----01
-----0-----
0-10-2-----
-10--------
100---1-2--
-------001-
-----------
0-----0----
3----10---0
10-0113---2
---------2-
-----------
-2---------
-00-32-1200
-0-------0-
0-----0----
2----10----
----31---1-
----0--1--1
--0--------
--0---0--1-
0-0301---1-
0--1--0---2
----0---0--
0-11------1
0----3-00-3
----1-000-0
00--2---201
--1-1-10---
-2-00---2--
--1-------0
-0--1---100
0--1---10--
-0---0-----
0-----1----
-0------31-
-00112-2--3
-1--0-----2
--2--------
--1-1-----0
1221--0-00-
1----------

Generation = 6, Population = 230.
-2-2-1--001
---3-1-1---
-3--3---123
-110-2-0---
-1---410001
1--002-010-
3----31-4-1
111--0-2-31
-01--2--1-0
-210-121-01
3-012--3-22
-2--13-2--4
13---112--0
1-00--0011-
-4-0-------
--2-541-22-
02-0-111---
22--1--1--0
4100----010
3--1-------
0-----1-1-1
--212------
---03-0-1--
-005-33-1--
-113210--1-
---10--101-
2033-1-3--3
-232-3100-3
0-03-122-10
-2--21--2-1
2---10-2-1-
1202-1----1
--11--0---2
--0-11-0---
-1-------0-
----1--1--1
-1---0----0
---11110---
-2--3--2125
-3-02-1--1-
-----000100
-01---1-2--
-2-3-2002-0
----1-----0

*** Life<FredkinCell> 41x15 ***

Generation = 0, Population = 81.
--0---0--------
0--0-----------
------0--------
-0--0----0--0--
-----------0---
----000-0------
---------------
----0--0-------
---0------0----
-------0-------
0---0----0-0---
-----0---0----0
---0-------0-00
----------0---0
------0--------
0-0-0---00-----
---------------
----------0----
-0-------------
--0------0--0-0
0--0-----------
---0--0-----0--
------------0--
--000----------
--0------0-----
-----0---------
0-------0---0--
0--------------
-------0-----0-
----0-0----0---
---0-----------
------0--------
--0--00-----0--
------0--------
--0--0---------
------0---0----
-------0-------
---------0----0
------------0--
---------------
-----0---------

Generation = 2, Population = 204.
1-0-----0------
0-0-10---0--0--
--0-1-0-0--0---
1-1-01-01-10--0
------1--1---0-
-0012---010-0--
---0------00---
--0-0--010-----
00--00--01-10--
----1--0------0
0-----01-20---1
---1---0--100--
00--110-----022
0-0-00---------
---01---1--0-01
----0--1--10--0
-0----0--------
0---0---------0
1--------------
1--00-00---1---
0-0--0------0--
-0-2-1--000-2--
0-10-----00---0
01002-------1--
----1--01--0---
1-1-1--0-------
2-----01-1---10
2-0-000----0---
1--0-0--10-11--
0-0-0---00---1-
-01---00----00-
--------0--0---
0-0--2-10-0---0
----0---0-0----
0-01101-----0--
----0-0--1--0-0
--0------1--0--
------01--101-0
-----0-0--0---1
---------0----0
---0-0-0----0--

Generation = 4, Population = 215.
3-2-------00---
2-00-2001------
------0---0----
10--0--2-----00
--01--10--1----
-2034--1230-0--
0---1-0--1-2---
10-120--3--01-0
---1--11-----1-
---1300-0-11--2
0-0-11230----1-
011--1-21-1-00-
---0-----0--02-
------00----1-1
100-3----102---
------0-1----0-
0----------1-00
---1------0-0--
-1---01-----0--
---2-12--01-000
----0--1-1-----
--0--3-12-----1
20----------1-0
0-2---0111--1-1
---0-110-------
-0-03----1-10--
--00----0-----2
---1--0--------
---0-20----130-
2-2--0100-1----
0-1--1-21---2--
1-0---2--------
000---1-202--10
--0-2-2--021--1
00-1--1--1--2--
--0-------1---0
--01--0----00--
-----02---1-10-
--0-----1-----1
------0---0----
-0-----0-1--0--

Generation = 6, Population = 291.
5---0-1-11-210-
4-021-2-310--00
0--12-21---20--
-2-00-----20--2
-1--1-----311--
042-41---5---10
2-1-1-001314---
1-0---1----0-10
-21-22-3-----1-
-0---2---0-3---
---1-14-2-010--
--11--1--21---2
------2-00-1-23
211-2-2210-----
3---3-011----22
---02--11--0--1
----001---0--02
-1-1-----1-----
2-------0101-0-
-11-2--11---0-2
1-1----3-3-0--0
--0-0-0-41--413
2-2-011--10-3--
-2-12-0-------3
1-1-2--0-0--0--
30---01-0-0321-
20--0012--01-32
2-01--21-0021--
20--0---200332-
4----232-01-0--
01--1-121-112--
1-0-00-0-1-0--1
-0---3--422---0
--2----1-243-0-
--1-11-1-3--21-
1-2--0--02-001-
--03-02---1-00-
--011-22--111--
01010--2-1101-1
----010---0--0-
-010-0--0-010--

Generation = 8, Population = 203.
7--02---------0
---433-1---1---
----4----1----0
--2------12--22
------2------00
0624------1-032
--1------------
3---3---41--2--
---1--2----22--
1--2------3----
--13----2--323-
-23-1-1-2-----4
1--1-32-02-1---
--30404--------
5-----------1-2
10-24-111-2-121
--01-----00----
--0--1-0----1--
----10--0--31--
23---23-11---14
------050-----0
0--3--2--------
---22-3---2----
2--3--2-12102--
-01-423---0-20-
-0----1---0--1-
401-221-0-2---4
--2-----100-1-1
4--1-2-1-0-----
4-3---5--0-0---
---1-------3---
3-000---------3
002--5---2---22
0----0--------2
22--31--1-0-23-
--2---------0-1
-------0----20-
-0--1---10-3-12
---32--4--1----
----------0----
-2----0-----20-

Generation = 10, Population = 288.
-1-0-02--1--1-0
-0-4--21-32---1
1-126--3---3102
-42--2--2-4212-
--0-----03-22--
26-6-2-----0252
2--13------4011
321----2---142-
-2-333---2042-0
-----22-21----2
-0--1-5-4--5252
---1133-2---1-4
-1--134--40---4
-2---24-2-0-30-
-----10-3--43--
12----31-2-01--
-0-----0----0-3
1-----------3-0
------1-2-1--0-
---222-23-3---4
---20----4-0--2
0-151---6-10414
------311-4--00
--254022-2102-3
-0-2-2513-012--
4-2-4-1-----3-0
62114-1--2--136
-04-2-31120--0-
----022-400---1
6-310--2--2212-
--23-2-2-1----1
-10-2----3-20--
2020-7--6-30-44
--4-2--2------4
-41--1--13-0---
-0---1--222202-
01-3---00321201
---1---3-2---1-
--2----412--1--
-1--1----1-1111
-2----010--2421

*** Life<FredkinCell> 49x18 ***

Generation = 0, Population = 76.
-------0----0-----
-----0------------
0-----------------
------------------
-0-0--0--0--------
0-------0--0------
----0------0------
-------0--0-------
0-----------------
0--------0--------
0-------------0---
-----------------0
------------------
-----------------0
------0--0--------
------0-----------
-----0----------0-
------------------
------------0-----
------------0-----
---0--------0-----
-----------0------
---0--0-----------
--00--------------
----0--------0----
-----------0------
------0-----0-----
-------0----------
-------------0----
------------------
--0---------------
------------------
00------0---------
-0---00--------0--
------0--00--0---0
------------------
--0---------------
--0--0---0-----0--
------------------
----00-----0------
-0----------------
0------------0----
-------0----------
------0-----------
----0--------0----
------------------
0-0----0----------
--------------0--0
------------------

Generation = 7, Population = 430.
--011101--23-11--0
111----2110--10---
21--12--12-130-0-0
12--020-1221------
--12-20--0---2-0--
005-21-4----2-0-00
----12---0-1-1-0-2
02------00--1-2-2-
14--02100-2--0----
--00210002-10-----
125-2--1-2212----0
---00--1---0210-0-
30-1-2220--1--0---
2--000300-001-000-
--3--413214-1---10
---02--02---41----
2-2-0--2---2-1--10
00-1-0202-2--10120
000-20-014-23---3-
1210----1022------
-00115-1-0-------0
--3-02--10---0----
--1---1-0-0-0-0--1
51--2-1-2--0-0100-
42--0---3202312-2-
20-001100--211---2
-0--021-----0--0-0
211-212-020--2--0-
110--0--3-204-00--
-22----021---00---
--10--212----1-0--
-----1-1--2-000-0-
-----202-1-14500-1
01---20-21031-03--
1-0-22--3-----1-13
--2-114-021--1--0-
101--1-1--200--20-
2--1-11---0-0-00-3
0---0-22-3-02-0-04
-0---3----10--000-
-0-2---3--1-0-0---
----1-1---12--2-0-
--------21-1-20--1
----4--22--1-----1
3--1-022--12000-0-
20--2--0-0000-00--
-0---0-3--00-0----
-00---10--0-00----
0-01120-0-000-----

*** Life<FredkinCell> 50x13 ***

Generation = 0, Population = 84.
-------------
-----0------0
-------------
---------0---
-------------
---0-0-------
------0----0-
--------0-0--
---------0-0-
-----0---0-0-
----0--------
-0-0-0-----00
0---0--0-0---
-----0-----0-
------------0
0----0--0---0
-----0-------
--00--------0
------0------
----------0--
-------------
-----0-------
--0-----0----
-----------00
--------0----
----0-0---0--
--------00---
--0----------
-------------
00---------0-
---0---------
------0------
---0---0---0-
-----00------
-0---------0-
-------0----0
0-0----0-----
---0---------
--0----------
0------000---
--------0----
-------------
----0--------
--0---00---0-
-------------
-----0-----0-
-------------
----0-----0--
-------0-----
------0------

*** Life<FredkinCell> 49x15 ***

Generation = 0, Population = 60.
---0-----------
0---0---0------
---------------
----0----------
----0----------
---0-----0-----
---------------
---------0-----
--0------------
0-0------------
------0----0---
---0---------0-
---------------
----0------0---
----0----------
---------------
-0-------------
---0-0---------
------0--------
-------0---0---
-----0---------
----------0----
-----0--------0
0---0----------
--0-0-0--------
---------------
----0------0-0-
------0-------0
0--------------
-----0---------
---------------
----0-0--------
--0------------
---------0-----
---0-----------
-----0---------
---------------
------------0--
---------------
0--------------
0---0------0---
---------------
--0------------
---------------
--------------0
-----0--------0
--0-0--0-------
---0-----------
---------------

Generation = 5, Population = 348.
--0-200-00--0--
-012-0-00-00-0-
0--1----0---0--
100----0-30----
2--1-0-------0-
00201301-0-00-0
--10-0--0-0-00-
1-13210----1---
40103010-0-1---
2--2102-0-0-0--
0020-0-21----2-
-0--2-010-0-0-0
02---0--0----0-
0--4---2-0-0---
-10--0-0100200-
000-2-0---01--0
02020----00--0-
04-11-0--1210-0
0--0310---20-0-
-0031---00--0-0
00--212-0-00--0
-0---221--020--
----30---1-1-10
301-202---01---
2-10---01-1---0
--0-0--0--10-01
300-0101-1---12
1-20--2-00-0--0
0-10-010----0--
0--11-0----0-0-
00-11-0-0------
-----1---------
0-0---100-0-000
------01---0210
01--0---00--00-
-2-22---0-00---
20--200-0-0-0-0
1--00--01200-0-
-0-2-0--00----0
20-0-1000-----0
--3-100220--002
----0---0--0--2
2--0-0110---0-1
-0--0-00--000--
1----0-------0-
---00-0--2--30-
--1-10-0-------
--01---2---0--1
-0-0-0010----0-

Generation = 10, Population = 375.
0130-23--3---0-
-134-2415--3-0-
--145-2-31-011-
--3-22---42104-
3--42-1---12--0
2---130---010--
---3310---0-0--
-2-3-10-0-13-2-
622050--1--40-0
4-4------3--01-
2-310---311-130
20---1------0--
0----0-2---21--
---521--2301111
3--11-30-23-3--
-1-2--10-43111-
2--3-2--1--101-
1504-31-------0
-2---1--10-0122
01-4-1--02-3--3
-311----1--0--1
1--1---320153--
--21----2--2443
4--0-----1-22-1
7221602--02121-
11022-20----0-3
-1-0131--6-022-
224-3-2030----1
--111--221111-1
--131010--0---1
1-2110-00-100-3
----3-3--------
--33401--1--0-1
02110-1----234-
22---4----0---0
-3-4----0-0112-
2-12---1----011
-1113--------1-
--2303--10-10-3
-03-33---1----0
-0441334511--13
----31-00--1---
-0-121220--1---
---2--0111--001
1--1-0--110-4-4
1---13034---6--
--4-2--1--01---
3-1---0-00--0-2
2---0-0--114101

*** Life<FredkinCell> 43x17 ***

Generation = 0, Population = 89.
--------00-------
------------0-0--
0-----0----------
-----------------
----0----0----0--
0------00-0------
-------0---------
------0------0---
--0--------------
---------0---0---
0-0-----0--------
----------0------
0------0---0--0--
-------0---------
-0---00----------
---------0-00----
------------0-0--
0-----0----------
----0--0---------
--0--------------
-0---------------
---0----------0-0
-----0---------0-
--------------0--
--0---0---------0
------0----------
-0-----0----0----
0---0-----------0
-----------------
-----0--0-0---0--
-0------------0--
0----------------
----0-------000--
0--------0--0----
----00----------0
------------0----
0----------------
-----------------
---0------0----00
-----0-----------
----0---0--0--0--
-----0---0---0---
-----------------

Generation = 3, Population = 370.
-0----02--21--0-0
--0----00-10--1--
1--0---00----0-00
-0----011--01-200
--10-0-0-0011-00-
1--0-1003-10-1--0
-01---010--000---
-0-0--0101-1--0-0
00--10-11--0-----
0-0--0-1-02-0-0-0
-0-0---2---1-0---
00--0-0-22------0
0-0----12-0-2-00-
00-------0121---0
20-0--10--02--0--
1-----2--11--2-00
0-00--21-01-301--
-00020--1-0120--0
-12-02-0-10-1-100
-0----1--0--0010-
-0--1-0-0---0----
0--0-2-----0---00
0-1-0--10---0--0-
0--10-200--0101--
-2000-12-0-01-2--
1-00--1-1-0-00-0-
-021--1001-0-01--
-00002---0100--01
0--000-10--0---00
--0---221--000--0
------00-0---2---
--1-01-01--0201-0
011-121-0-12101-0
0----00100-230--0
2---3-2-00--1100-
-0---00001--10--0
1-1---0---10----0
-0000-0---0-1--00
110-2200-0021-01-
00-201---1000-000
-0120--001002--20
---10-0-00-000-10
-------0-00-00---

Generation = 6, Population = 359.
--00-232-----0-10
2-0--10--02-214-0
-----10110-1--2-0
2-101-1120--2230-
------1011312-110
212--1313------0-
-14-1--111-3----0
--2010020-1------
10112-------11---
3--0--0-2-50-010-
--211203----2--00
---1-10133-000001
----2-1--1--3----
31--1-----15200-1
-1--31---212---11
---1-2--2---1--3-
320-1--400-2-0-00
00---1-2--3221-11
-4-20--1-1-21---0
--12---10100-04-1
-3-22-10-11------
1---130-1--10-2--
0-2--112-0-2--0-0
3-213130--2---2--
--3-1---112-2----
-0-100114---1-0-3
0---011--2--014-1
-1-1-3--2-1------
1-201-02------1-3
---11-3-------3-3
----21--1----3--0
00--1-----0--1--1
1--02----2-32--10
1---010----33-31-
51--3221-10-----2
---10111----1----
--20-1012-2--010-
-110-2-110014-111
---1551-1--5-0-4-
11-2-2-0-200110--
--13--13-11--11-3
-0-2---1-1-11----
-112-1-101321----

Generation = 9, Population = 339.
--110--5-22-0112-
3--02--4-15-5-500
10--1-1--31-002--
-0--2-21------3--
-2-0---1-----02--
--31---2--------0
0---2--2--03-0010
-----1--0-122----
-0-1-0132111---0-
610--33--2-1---00
01---3-42--130011
-0-20--2-30-0-012
----50---4-0--2--
6103--0----63-324
--0-3--21---1-12-
-1-2-----1---4-4-
33--202-11-3--41-
1---4----24--2--2
172---12-----0---
-----0--01-0--5--
13-22311---2-0101
211--631100230-0-
--312---000-12-1-
6-----6----11----
-3-----2-1-0-2-1-
20--01---200-0--4
0--3-11--3--01--4
01--24-----0--001
---0------0-002-4
-2--2062-010--6-4
00-13--1-23-3--01
---01---3-004--0-
-1-----0--2--111-
1--03-0-11-333612
5--14222-2-0220-2
-00---12--0------
1----2--3-3--1--0
-2210-0-----51212
----6-2----63-05-
--020--1---1-2--0
-0-----4-----224-
-10-02--0--12-0-0
21-22-0--2--1--0-

*** Life<FredkinCell> 50x19 ***

Generation = 0, Population = 85.
-0-----------------
-----------00------
-0---------------00
---00--------0-----
---0----0-----0----
---------0---------
--------0----------
----0--------------
-------------------
-0-----------------
----0--0-----------
----00----------0--
-0------0---------0
--0----------------
---------00------0-
---------------0---
-------------0--0--
----------0-------0
0-------0---------0
-----0------------0
--------------0----
-------------------
-0-0-------------00
----------0---0---0
-------------------
-----------0-------
-------------------
---0------0------0-
-----0-----0------0
----0----0---------
----------0--------
---0---------------
--------0----------
---0---------------
---0--0------0-----
0--------00--------
---0----0----0-----
---0---0-----------
-------0---------0-
----------0--------
--0----------------
-0-----------------
-------------------
-0-----------------
----0--------0---0-
--0-----0----------
-------------------
------------0------
-------0-----------
------00-----------

*** Life<FredkinCell> 44x18 ***

Generation = 0, Population = 81.
------0-----------
--------------0-0-
------------0---0-
------0-----0-0---
----0------------0
---0-0------------
-0---0-0-00-----0-
---0-----0-0------
------------------
------0-----------
---0-----0--00----
-0---------0------
------00----------
-------------0----
---------00--0-0--
------------------
--0---------------
--0-0--------0----
----------------0-
-------0---------0
---------------0--
----------------0-
-----0-00---------
----0---00--------
----0-0--0-0------
--0------------0--
--------------0---
--------------0-0-
------------------
------00----------
-----------------0
------------------
-0----------0-----
-0--------------0-
------------------
0--0--------------
---------------0--
--00--------------
0-0-------------0-
-----0------------
-----------0----0-
---0--------0-----
------------------
-----0-0----------

*** Life<FredkinCell> 41x13 ***

Generation = 0, Population = 64.
-------------
---00------0-
-0-----0---00
0----0-------
-------------
----0---0---0
--0----0----0
------------0
0------0----0
-------------
------------0
-------------
-------------
0--------0-00
--0---0------
---0--0------
-------------
--0-00---0---
--0-----0----
-------------
-------------
-------0---0-
-------0-----
---0-------0-
--0-----0---0
-0--------0--
--------0----
--0----------
--0----------
0-0------00-0
-0-----------
---------0---
-00----------
-----------0-
-------------
-------------
--------0----
-------0-00--
-------------
-----00------
-0-----------

Generation = 6, Population = 251.
--1----01--52
2---21---01--
----11111--0-
0-210-03----1
------11-11--
----1-------1
-2----2011-0-
3-1-1-00-0---
--2000--120--
---0-11023-31
2-01-11011012
20---1-11---1
--1--0-2-11-3
--11-0--3--4-
--1-0-20----0
-1--0-1-0-32-
--1-0-202-1--
2---34--31013
--1-101-000--
1-20--1---1-1
---0--11---0-
12--0---13-01
-0---10--10--
---0--1--0-4-
-1100--3---02
1--1-22--3-53
-3-0101--0--0
224--13---012
5-01-020-----
1-304102---41
--1--011--0-1
21-1-0-00----
--4--120--0--
----0-1---1-2
02-0011-0---1
0-1-022-1----
0-0-0-1---2-3
--0013-12---4
-20100--0---1
1--1-23----1-
-----2011-1--
