*** Life<ConwayCell> 15x3 ***

Generation = 0, Population = 20.
..*
***
...
*.*
..*
.**
.*.
*.*
*..
..*
.**
...
**.
.*.
..*

Generation = 1, Population = 21.
..*
.**
*.*
.*.
..*
.**
*..
*..
...
..*
.**
*.*
**.
***
...

Generation = 2, Population = 19.
.**
..*
*.*
.**
..*
.**
*..
...
...
.**
..*
*.*
...
*.*
.*.

Generation = 3, Population = 14.
.**
..*
..*
..*
...
.**
.*.
...
...
.**
..*
.*.
...
.*.
.*.

Generation = 4, Population = 14.
.**
..*
.**
...
.**
.**
.**
...
...
.**
..*
...
...
...
...

Generation = 5, Population = 13.
.**
...
.**
...
.**
*..
.**
...
...
.**
.**
...
...
...
...

Generation = 6, Population = 7.
...
...
...
...
.*.
*..
.*.
...
...
.**
.**
...
...
...
...

Generation = 7, Population = 6.
...
...
...
...
...
**.
...
...
...
.**
.**
...
...
...
...

Generation = 8, Population = 4.
...
...
...
...
...
...
...
...
...
.**
.**
...
...
...
...

Generation = 9, Population = 4.
...
...
...
...
...
...
...
...
...
.**
.**
...
...
...
...

Generation = 10, Population = 4.
...
...
...
...
...
...
...
...
...
.**
.**
...
...
...
...

*** Life<ConwayCell> 3x2 ***

Generation = 0, Population = 2.
..
.*
.*

Generation = 1, Population = 0.
..
..
..

Generation = 2, Population = 0.
..
..
..

Generation = 3, Population = 0.
..
..
..

Generation = 4, Population = 0.
..
..
..

Generation = 5, Population = 0.
..
..
..

Generation = 6, Population = 0.
..
..
..

Generation = 7, Population = 0.
..
..
..

Generation = 8, Population = 0.
..
..
..

Generation = 9, Population = 0.
..
..
..

Generation = 10, Population = 0.
..
..
..

*** Life<ConwayCell> 11x2 ***

Generation = 0, Population = 12.
..
**
.*
*.
*.
..
..
**
**
**
*.

Generation = 1, Population = 9.
..
**
.*
**
..
..
..
**
..
..
**

Generation = 2, Population = 4.
..
**
..
**
..
..
..
..
..
..
..

Generation = 3, Population = 0.
..
..
..
..
..
..
..
..
..
..
..

Generation = 4, Population = 0.
..
..
..
..
..
..
..
..
..
..
..

Generation = 5, Population = 0.
..
..
..
..
..
..
..
..
..
..
..

Generation = 6, Population = 0.
..
..
..
..
..
..
..
..
..
..
..

Generation = 7, Population = 0.
..
..
..
..
..
..
..
..
..
..
..

Generation = 8, Population = 0.
..
..
..
..
..
..
..
..
..
..
..

Generation = 9, Population = 0.
..
..
..
..
..
..
..
..
..
..
..

Generation = 10, Population = 0.
..
..
..
..
..
..
..
..
..
..
..

*** Life<ConwayCell> 3x2 ***

Generation = 0, Population = 2.
.*
.*
..

Generation = 1, Population = 0.
..
..
..

Generation = 2, Population = 0.
..
..
..

Generation = 3, Population = 0.
..
..
..

Generation = 4, Population = 0.
..
..
..

Generation = 5, Population = 0.
..
..
..

Generation = 6, Population = 0.
..
..
..

Generation = 7, Population = 0.
..
..
..

Generation = 8, Population = 0.
..
..
..

Generation = 9, Population = 0.
..
..
..

Generation = 10, Population = 0.
..
..
..

*** Life<ConwayCell> 14x3 ***

Generation = 0, Population = 6.
...
..*
...
..*
...
*..
...
.*.
...
...
...
*..
.*.
...

Generation = 1, Population = 0.
...
...
...
...
...
...
...
...
...
...
...
...
...
...

Generation = 2, Population = 0.
...
...
...
...
...
...
...
...
...
...
...
...
...
...

Generation = 3, Population = 0.
...
...
...
...
...
...
...
...
...
...
...
...
...
...

Generation = 4, Population = 0.
...
...
...
...
...
...
...
...
...
...
...
...
...
...

Generation = 5, Population = 0.
...
...
...
...
...
...
...
...
...
...
...
...
...
...

Generation = 6, Population = 0.
...
...
...
...
...
...
...
...
...
...
...
...
...
...

Generation = 7, Population = 0.
...
...
...
...
...
...
...
...
...
...
...
...
...
...

Generation = 8, Population = 0.
...
...
...
...
...
...
...
...
...
...
...
...
...
...

Generation = 9, Population = 0.
...
...
...
...
...
...
...
...
...
...
...
...
...
...

Generation = 10, Population = 0.
...
...
...
...
...
...
...
...
...
...
...
...
...
...

*** Life<ConwayCell> 16x2 ***

Generation = 0, Population = 8.
..
*.
..
..
**
..
..
..
..
.*
.*
*.
.*
..
.*
..

Generation = 1, Population = 4.
..
..
..
..
..
..
..
..
..
..
**
**
..
..
..
..

Generation = 2, Population = 4.
..
..
..
..
..
..
..
..
..
..
**
**
..
..
..
..

Generation = 3, Population = 4.
..
..
..
..
..
..
..
..
..
..
**
**
..
..
..
..

Generation = 4, Population = 4.
..
..
..
..
..
..
..
..
..
..
**
**
..
..
..
..

Generation = 5, Population = 4.
..
..
..
..
..
..
..
..
..
..
**
**
..
..
..
..

Generation = 6, Population = 4.
..
..
..
..
..
..
..
..
..
..
**
**
..
..
..
..

Generation = 7, Population = 4.
..
..
..
..
..
..
..
..
..
..
**
**
..
..
..
..

Generation = 8, Population = 4.
..
..
..
..
..
..
..
..
..
..
**
**
..
..
..
..

Generation = 9, Population = 4.
..
..
..
..
..
..
..
..
..
..
**
**
..
..
..
..

Generation = 10, Population = 4.
..
..
..
..
..
..
..
..
..
..
**
**
..
..
..
..

*** Life<ConwayCell> 15x12 ***

Generation = 0, Population = 99.
..*..*..*.*.
*****.****..
..*.***.....
***...**.***
**..*..*****
**..***.*...
**.*..***..*
...*..*.****
..***.*.**..
....*..**...
.*****.***.*
..*****.**.*
**.*.**.*...
****.*.....*
*****.****..

Generation = 1, Population = 43.
..*.***.*...
........**..
....*.......
*.*.*......*
...**......*
...**......*
**.*.......*
.*....*....*
..*.*.*.....
.*........*.
.*..........
*...........
*.......***.
.........*..
*...*****...

Generation = 2, Population = 48.
.....*.***..
...**..***..
...*........
....**......
..*..*....**
..........**
**.**.....**
**.*.*......
.**..*......
.**.........
**..........
**.......*..
........***.
.....**...*.
.....****...

Generation = 3, Population = 45.
....*.**.*..
...**.**.*..
...*.*..*...
...***......
....**....**
.****....*..
**.**.....**
...*.*......
...**.......
............
............
**......***.
........*.*.
.....*....*.
.....*.*....

Generation = 4, Population = 31.
...**.**....
...*.....*..
..*....**...
...*..*.....
..........*.
**.......*..
**...*....*.
.....*......
...**.......
............
.........*..
........*.*.
........*.**
......*..*..
......*.....

Generation = 5, Population = 30.
...**.......
..***.*.....
..**...**...
.......*....
............
**.......**.
**..........
.....*......
....*.......
............
.........*..
........*.**
.......**.**
.......*.**.
............

Generation = 6, Population = 26.
..*.**......
.....*.*....
..*.*.***...
.......**...
............
**..........
**..........
............
............
............
.........**.
.......**..*
.......*....
.......*.***
............

Generation = 7, Population = 26.
....***.....
.......**...
.....*......
......*.*...
............
**..........
**..........
............
............
............
........***.
.......****.
......**.*.*
........*.*.
..........*.

Generation = 8, Population = 23.
.....***....
....*..*....
......*.*...
............
............
**..........
**..........
............
............
.........*..
.......*..*.
......*....*
......*....*
.......**.**
.........*..

Generation = 9, Population = 24.
.....***....
........*...
.......*....
............
............
**..........
**..........
............
............
............
..........*.
......**..**
......*....*
.......*****
........***.

Generation = 10, Population = 18.
......**....
........*...
............
............
............
**..........
**..........
............
............
............
..........**
......**..**
......*.....
.......*...*
.......*...*

*** Life<ConwayCell> 11x3 ***

Generation = 0, Population = 11.
..*
***
.**
..*
...
...
*..
..*
*..
...
*..

Generation = 1, Population = 6.
..*
*..
*..
.**
...
...
...
.*.
...
...
...

Generation = 2, Population = 3.
...
.*.
*..
.*.
...
...
...
...
...
...
...

Generation = 3, Population = 2.
...
...
**.
...
...
...
...
...
...
...
...

Generation = 4, Population = 0.
...
...
...
...
...
...
...
...
...
...
...

Generation = 5, Population = 0.
...
...
...
...
...
...
...
...
...
...
...

Generation = 6, Population = 0.
...
...
...
...
...
...
...
...
...
...
...

Generation = 7, Population = 0.
...
...
...
...
...
...
...
...
...
...
...

Generation = 8, Population = 0.
...
...
...
...
...
...
...
...
...
...
...

Generation = 9, Population = 0.
...
...
...
...
...
...
...
...
...
...
...

Generation = 10, Population = 0.
...
...
...
...
...
...
...
...
...
...
...

*** Life<ConwayCell> 6x11 ***

Generation = 0, Population = 25.
.*..**..**.
......*..*.
**.*...*..*
....*.*.***
.*..**.*.*.
*..*...*...

Generation = 1, Population = 32.
.....*..**.
***.****.**
.....***..*
*****.*...*
...***.*.**
....*.*.*..

Generation = 2, Population = 27.
.*..**.****
.*..*.....*
........*.*
.**.....*.*
.*.....****
...**.****.

Generation = 3, Population = 21.
....**..***
....**.*..*
.**.......*
.**.......*
.*.*..*...*
......*...*

Generation = 4, Population = 24.
....***.***
...****.*.*
.***.....**
*..*.....**
.*.......**
...........

Generation = 5, Population = 14.
...*..*.*.*
......*.*..
.*...*..*..
*..*....*..
.........**
...........

Generation = 6, Population = 8.
.........*.
.....**.*..
........**.
........*..
.........*.
...........

Generation = 7, Population = 5.
...........
.......**..
........**.
........*..
...........
...........

Generation = 8, Population = 6.
...........
.......***.
.........*.
........**.
...........
...........

Generation = 9, Population = 7.
........*..
........**.
.......*..*
........**.
...........
...........

Generation = 10, Population = 9.
........**.
.......***.
.......*..*
........**.
...........
...........

*** Life<ConwayCell> 2x13 ***

Generation = 0, Population = 16.
.**.****..**.
**.***..**..*

Generation = 1, Population = 17.
***...******.
**.*...*****.

Generation = 2, Population = 7.
*.*...*....*.
*.....*....*.

Generation = 3, Population = 2.
.*...........
.*...........

Generation = 4, Population = 0.
.............
.............

Generation = 5, Population = 0.
.............
.............

Generation = 6, Population = 0.
.............
.............

Generation = 7, Population = 0.
.............
.............

Generation = 8, Population = 0.
.............
.............

Generation = 9, Population = 0.
.............
.............

Generation = 10, Population = 0.
.............
.............

*** Life<ConwayCell> 7x5 ***

Generation = 0, Population = 19.
.*.**
.**..
**...
..***
..*..
****.
.****

Generation = 1, Population = 11.
.*.*.
...*.
*....
..**.
....*
*...*
*...*

Generation = 2, Population = 8.
..*..
..*..
..**.
...*.
....*
...**
.....

Generation = 3, Population = 10.
.....
.**..
..**.
..***
....*
...**
.....

Generation = 4, Population = 9.
.....
.***.
....*
..*.*
..*..
...**
.....

Generation = 5, Population = 8.
..*..
..**.
.*..*
.....
..*.*
...*.
.....

Generation = 6, Population = 10.
..**.
.***.
..**.
...*.
...*.
...*.
.....

Generation = 7, Population = 11.
.*.*.
.*..*
.*..*
...**
..***
.....
.....

Generation = 8, Population = 10.
..*..
**.**
..*.*
.....
..*.*
...*.
.....

Generation = 9, Population = 10.
.***.
.*..*
.**.*
.....
...*.
...*.
.....

Generation = 10, Population = 10.
.***.
*...*
.***.
..**.
.....
.....
.....
