*** Life<ConwayCell> 5x18 ***

Generation = 0, Population = 84.
******************
*****************.
*..*********.****.
******************
.*****************

Generation = 1, Population = 5.
*................*
..................
..................
*.................
*................*

*** Life<ConwayCell> 20x11 ***

Generation = 0, Population = 61.
..*.*......
.*..*...*.*
.....****..
...*..*..*.
.*.*..*...*
.*..*......
..***..*...
...*.....**
**.*..*....
*.*...*....
..***.**...
**.........
.....*.....
....*......
.....*.....
...........
.*.*.**.**.
*...*.*..*.
..***..*.*.
...*...**..

Generation = 2, Population = 52.
...**......
...*..*.**.
......*....
......****.
..*........
..*........
.*****.....
**.*.......
***........
*...*.**...
*......*...
.*.....*...
..*...*....
...........
......*....
....*...*..
....*...***
...*......*
.**.*....**
..*.*..**..

Generation = 4, Population = 42.
...*.*.....
...*.......
........*..
.....*..*..
......*.*..
...........
...........
...*.......
...........
*.*...***..
**......*..
**....***..
...........
...........
...........
....*..***.
..*..*..*..
.*...*.**.*
....*..*..*
.***....*.*

*** Life<ConwayCell> 4x11 ***

Generation = 0, Population = 43.
***********
***********
*****.*****
***********

Generation = 1, Population = 4.
*.........*
...........
...........
*.........*

Generation = 2, Population = 0.
...........
...........
...........
...........

*** Life<ConwayCell> 11x3 ***

Generation = 0, Population = 33.
***
***
***
***
***
***
***
***
***
***
***

*** Life<ConwayCell> 9x20 ***

Generation = 0, Population = 111.
********.*..*****.**
...*...*.**.**.*****
.******..*.***..**.*
.**..*.*.**.*.*...**
..***.********...***
***.**.*.*..*.*.**..
*.***.*.*.*.**.**..*
*.*.****..*.*.**.***
*.***.*..*.**...***.

Generation = 5, Population = 29.
...*.**.............
...*.*****..........
....................
....................
...............***..
..............*..**.
.**...........**.**.
........*.*...***...
........*.**........

*** Life<ConwayCell> 15x6 ***

Generation = 0, Population = 44.
..*...
.***.*
**...*
.....*
****..
.****.
.*.*.*
.*..**
...*.*
*.*.**
...***
**.*..
.*..**
**.*..
***...

*** Life<ConwayCell> 18x18 ***

Generation = 0, Population = 144.
.*..**..*..****.*.
***...*...*..*....
***..**.....***.**
***.**..*...*...*.
.**.**.*..**.*.***
*.**.*....***.*.**
.***..***..*...*.*
.*...*.*.**.**..**
**....*.*........*
**..**...**.*****.
**.....*.*....*.*.
....**...*..*....*
..**.*.**.*.*.....
*.***.**.*****.*.*
.*........*...*.*.
...**..**.*......*
**...******.*.....
.**..*..*.....**..

*** Life<ConwayCell> 1x5 ***

Generation = 0, Population = 5.
*****

*** Life<ConwayCell> 18x5 ***

Generation = 0, Population = 65.
....*
*****
***.*
*.***
*****
****.
..**.
*****
*****
**...
.*.**
*.***
**.**
*.**.
.***.
*.***
**.*.
****.

Generation = 7, Population = 0.
.....
.....
.....
.....
.....
.....
.....
.....
.....
.....
.....
.....
.....
.....
.....
.....
.....
.....

*** Life<ConwayCell> 10x1 ***

Generation = 0, Population = 10.
*
*
*
*
*
*
*
*
*
*

Generation = 5, Population = 0.
.
.
.
.
.
.
.
.
.
.

Generation = 10, Population = 0.
.
.
.
.
.
.
.
.
.
.

*** Life<ConwayCell> 20x13 ***

Generation = 0, Population = 120.
.**.***..*..*
.*.*..***.**.
*.*.***.*****
..***.**.*.**
*.**.....*..*
***..*..*.***
*......*.***.
**..*..*.*.**
*....*****..*
......*.**.*.
*.........*.*
..*...*.*..**
*.**.*.**.***
..*..**..*.**
..*..*..*.**.
.***.........
..*.****..*..
**.*.**..*..*
...*....*...*
...**...*..**

Generation = 2, Population = 83.
.*****...**..
.*****...**..
.............
.....*.**....
.*...*.......
..**.*..*....
*.**..**.....
*.*..*.......
**..**......*
.....**.....*
.....**..*..*
..*..*..*....
.*...***.....
..*......***.
....***.**..*
.....*.*.*..*
***....*...*.
..*.*.*..**..
...*...*.*..*
...**...*..**

Generation = 4, Population = 67.
.........**..
.*...*.......
..*.*******..
..***....*...
....**.**....
.....*.......
.....*.*.....
*...**.......
**...........
.............
.............
...**........
...*****...*.
...**......*.
...*...*....*
.*.....*.*..*
.*.*.*.*.....
....**.*.*.**
..*.**.*.*..*
...**...*..**

*** Life<ConwayCell> 2x20 ***

Generation = 0, Population = 25.
.***.***.*.*.****.**
*..***...***.**.*.*.

Generation = 1, Population = 22.
.***.**.**.*.*..*.**
.*.*.*..**.*.*..*.**

Generation = 2, Population = 18.
.*.*.*****........**
.*.*.*****........**

Generation = 3, Population = 8.
.....*...*........**
.....*...*........**

Generation = 4, Population = 4.
..................**
..................**

Generation = 5, Population = 4.
..................**
..................**
