*** Life<FredkinCell> 12x6 ***

Generation = 0, Population = 52.
000000
000000
0000--
0-0-00
-0-0-0
0--000
00-00-
00-000
-0--0-
-0--00
000-00
000000

Generation = 50, Population = 36.
++----
--++84
9-+7+-
++-+++
---+--
+----9
------
+-9-9+
8-+--7
+++++-
-----9
++-9++

Generation = 100, Population = 37.
-+-+-+
+---++
-++---
++-+--
---+--
+--++-
+-+-+-
++-++-
---+--
+++-++
-+-+++
+++-++

Generation = 150, Population = 38.
+-+-++
---+-+
--++++
+++-+-
-++---
----+-
+--+-+
+---++
+++-+-
-+-++-
+-+-+-
+-++++

Generation = 200, Population = 29.
+-++--
+++---
-++---
-+----
----+-
++++--
-++--+
--++--
-++-+-
+++-+-
----++
--+---

Generation = 250, Population = 35.
--+---
-+--++
-+-+-+
++-++-
+--+--
--++-+
+++--+
+--+++
-++--+
--+++-
--+---
--++++

Generation = 300, Population = 36.
+-+---
++-+--
-+--+-
++--+-
--+-+-
+--+++
++++--
+--+++
-+-+-+
+++---
---+-+
-+-+++

Generation = 350, Population = 38.
-+--+-
+-++-+
--+-++
++++-+
+--+-+
----++
++--++
-+-++-
+-+++-
+-+---
+--+--
+--+++

Generation = 400, Population = 31.
+-+-+-
+-+-+-
----++
---+++
+-+---
--++--
-+---+
++-++-
--++--
-++-+-
-++---
--+++-

*** Life<FredkinCell> 12x6 ***

Generation = 0, Population = 54.
0-0000
000-00
00--00
000000
000000
-0-0-0
00000-
0-00--
0-00-0
0-----
000000
000000

Generation = 50, Population = 37.
6---+-
+-+-+-
++--+-
+98--+
-++9+-
++-9--
-+--++
-++++-
+--8-+
-+---+
-++---
+9--++

Generation = 100, Population = 37.
-++---
-+-+-+
++-++-
+-++++
-+--++
---+-+
--+++-
+-+++-
--+++-
-+++--
+-++--
+--+--

Generation = 150, Population = 39.
-+--+-
++-+++
++--++
+---++
++--+-
+-----
-+++--
+---++
+-++-+
-+-+-+
+++++-
--+++-

Generation = 200, Population = 32.
-++---
---+--
--+---
+-----
+-+-+-
-+++--
++-+--
---+++
-++++-
+--+++
--+++-
++-++-

Generation = 250, Population = 41.
+++-+-
++--+-
-+--++
-+++++
------
++-+++
+-++--
+++-+-
+--+-+
-+++-+
++++-+
+-+---

Generation = 300, Population = 38.
-++-+-
+--+-+
-+-++-
-+-++-
++-+-+
-----+
++----
+--+++
--+-+-
+-+-++
++++++
++---+

Generation = 350, Population = 41.
----++
-++-+-
-+-++-
+++-++
+-+---
++-++-
--++++
--+-++
-++---
++-+++
+--+++
+--+++

Generation = 400, Population = 37.
++-+--
--++--
-++-++
---+--
+-++--
+++++-
++--+-
++--++
-+-+--
++++--
--+-+-
+++--+

*** Life<FredkinCell> 12x6 ***

Generation = 0, Population = 53.
000000
000--0
0000--
000000
0000-0
00-000
00--0-
--0-00
0--00-
0000-0
-00000
0-0-00

Generation = 50, Population = 38.
-++-+-
+++-++
+----+
5---++
-+-++6
---+-+
8--++-
-+++++
-++-+-
----6-
++++-+
+--+--

Generation = 100, Population = 38.
++----
-++--+
-+-+-+
++--++
++----
+-+--+
+--+++
++++--
-++-++
+----+
++-++-
++---+

Generation = 150, Population = 36.
++--+-
+-++++
--++--
+++--+
+-----
---+-+
+---+-
+--++-
--+++-
+++-+-
-++++-
+-++--

Generation = 200, Population = 37.
----+-
++-+-+
-+-+++
++---+
+--+--
-++-+-
++++--
+++++-
++-++-
+-+---
+-+---
+---++

Generation = 250, Population = 33.
-+-++-
+-++-+
++-+--
+--+++
-+-+++
+--++-
-+---+
+----+
+--+--
------
--+++-
-+++--

Generation = 300, Population = 44.
-++-+-
--++++
+-+++-
---+-+
+-+---
+++---
++--++
--+++-
+-++++
-+++--
++++++
+++-++

Generation = 350, Population = 41.
--++--
+----+
--++++
++-+--
+--+++
+-++++
--+-++
--+-++
+-++++
++++--
---++-
++-+-+

Generation = 400, Population = 33.
---+--
--+-+-
+--+++
---+-+
++++--
+--+++
-++---
++-+--
+++---
++++--
-++---
-+---+

*** Life<FredkinCell> 12x6 ***

Generation = 0, Population = 58.
0-0000
0-0000
00-000
0--000
000000
0000-0
0000-0
000000
-00-0-
00000-
00-000
-000-0

Generation = 50, Population = 33.
--++--
++8+-+
+9+--+
7++-++
2+---+
-+---+
---++7
+----9
+---8+
-----+
--7+--
--7---

Generation = 100, Population = 32.
-----+
+-++-+
+-++-+
-+--+-
++-+--
+---++
-++-++
-+---+
+-+--+
+--++-
------
-++-+-

Generation = 150, Population = 41.
+++++-
+++-+-
++-+--
++++++
+-+-+-
++-++-
++----
----+-
-++++-
-+-++-
+++---
++--+-

Generation = 200, Population = 35.
++--++
-+----
---+--
-++--+
-+++-+
+---+-
+-+++-
----++
---++-
-+--++
++++--
++-+++

Generation = 250, Population = 38.
+--++-
----+-
+++---
+--+++
-+++++
-+---+
++++-+
-++-++
+++---
---+-+
+-+--+
++---+

Generation = 300, Population = 30.
+-----
--++--
---+--
--+++-
--+---
--++--
-+-+++
+-++--
-+-+++
++-++-
+-++--
-++---

Generation = 350, Population = 33.
+---+-
---++-
----++
++-+--
----+-
+-+--+
++++++
-++---
--+-++
-++++-
+++--+
-----+

Generation = 400, Population = 31.
--++-+
--++--
---+-+
--+--+
+-++-+
-+-+--
++---+
+-+-+-
++-+--
-+-+--
-+--+-
+-+--+

*** Life<FredkinCell> 12x6 ***

Generation = 0, Population = 54.
00-000
--0000
00000-
000000
000-00
000000
--00-0
00--00
00-00-
--0000
000---
0-0000

Generation = 50, Population = 37.
-8---+
+8---+
----++
+6++--
+6++++
-++-8-
----8-
++---+
++-+-+
+-+++-
-8---+
-+++--

Generation = 100, Population = 33.
-+++--
-----+
--++--
+++-++
+---+-
+-+---
-+-++-
+--+--
+-+---
++-+-+
-+-++-
-++-++

Generation = 150, Population = 34.
------
--+--+
+--+-+
--++--
-++-+-
+-+++-
--++-+
--+-+-
-+-+++
+-++++
--++--
-++++-

Generation = 200, Population = 40.
-+--++
+----+
++-+-+
++++--
-+-++-
+--+++
+++-++
-+---+
+++++-
++-+++
-+-+-+
------

Generation = 250, Population = 39.
+---++
++---+
++---+
+--++-
++-+--
++++++
++-+++
--+-++
--+--+
+---++
+--++-
+----+

Generation = 300, Population = 37.
+--++-
++-+++
---++-
-----+
++++--
--+++-
+--++-
+-----
--++++
-+-+++
+-++-+
-+-++-

Generation = 350, Population = 30.
-+++-+
++---+
++--++
+-+---
++----
------
++++-+
------
++++--
+--+--
--+-+-
--++--

Generation = 400, Population = 37.
-++--+
++-+-+
+++-+-
++---+
+++-+-
-+----
+--++-
-++-++
---++-
++---+
+-+---
-+++-+

*** Life<FredkinCell> 12x6 ***

Generation = 0, Population = 51.
0-0-00
0---00
00-000
---0-0
0-0000
00-000
000000
000-0-
00-0--
000000
00---0
-00000

Generation = 50, Population = 41.
--+--+
+++-+-
-+++-+
---+++
--+---
+++-8-
--++++
++-8+-
+-8+8-
+--++-
8---++
-6++++

Generation = 100, Population = 37.
+++--+
+++--+
+-++++
--+---
-+++++
--+-+-
-+++-+
----+-
+++-+-
-+-+++
---+-+
----+-

Generation = 150, Population = 38.
-+----
+-++++
----++
+++--+
---+-+
+++++-
+++-+-
---++-
++--++
-++--+
-+--+-
+-++-+

Generation = 200, Population = 31.
+++---
--+---
+--+--
+---++
+--+++
---++-
------
-+-++-
+++++-
+--+--
+--++-
++--+-

Generation = 250, Population = 32.
-+-++-
-+-+-+
+-----
++--++
--+--+
++---+
+-+---
+-++-+
++++--
-+-+-+
----++
----+-

Generation = 300, Population = 42.
+++-++
+---++
++---+
-+++++
--++++
-++++-
---+++
-++-+-
-+++--
---++-
-++++-
+--+-+

Generation = 350, Population = 40.
--++--
-+++-+
---++-
--+-++
+++-+-
+++-+-
-+++++
---+++
-+++-+
+--+--
-+-+++
+-+--+

Generation = 400, Population = 43.
-+++-+
--++++
++++++
-+---+
--++--
++-+++
--+--+
-+++++
-+---+
--+-++
+++-++
+-+--+

*** Life<FredkinCell> 12x6 ***

Generation = 0, Population = 53.
0-00-0
0-0-00
000-0-
00-000
00-000
-0000-
000-00
0000--
-00000
-0-000
000-00
00-0-0

Generation = 50, Population = 36.
++---+
--+-++
--+---
--++--
--+++9
+--+-+
-+++3+
+7-++-
-++---
-----+
++-+++
-4-+-+

Generation = 100, Population = 33.
+-+-+-
-++---
--++++
-+++--
-+--+-
---+++
----++
++--+-
--+-+-
+-+-++
+--+-+
--++--

Generation = 150, Population = 33.
+-++++
+-++++
+-++--
--+---
+--+--
--+--+
-+++-+
--++--
--+-+-
+++-+-
---+--
-+--+-

Generation = 200, Population = 29.
-++++-
--++++
-----+
+-++--
-----+
--++--
+-+---
+-+-+-
---+--
---++-
+----+
-++-++

Generation = 250, Population = 36.
---+++
+--+--
++-++-
-+--+-
--+---
-+++++
+---++
++-++-
-+-++-
-+-++-
+----+
++++--

Generation = 300, Population = 39.
----++
-+----
++++++
--++++
-++--+
+---+-
-+--++
--+-+-
--++++
+++++-
++-+-+
-+++--

Generation = 350, Population = 42.
--++++
+-+-+-
-++-++
-++-+-
+-+-++
-++---
--+++-
+++-++
-+--++
+-+--+
--++-+
-+++++

Generation = 400, Population = 33.
--++--
----++
-+----
+---+-
+--+--
+-+-++
--++-+
+-++--
--++++
++++--
+++--+
--+--+

*** Life<FredkinCell> 12x6 ***

Generation = 0, Population = 52.
000000
000000
-00-00
000000
--0---
0-0000
-0000-
0-0--0
-000-0
0000-0
-00-0-
0000-0

Generation = 50, Population = 30.
-+--++
++-+-+
-+----
-+---+
--+-+-
+-----
-++-+-
+++-+-
-+--++
+--+--
-+--+-
-++-+-

Generation = 100, Population = 35.
+----+
-----+
+-+---
-++++-
----+-
+++--+
-+++++
-++---
+-+++-
+-++--
+++++-
--++--

Generation = 150, Population = 40.
+-+-++
-+++-+
+-+-+-
-++-+-
++--+-
--++-+
-+---+
+-+-+-
+++-++
-+++--
-+--++
++--++

Generation = 200, Population = 28.
+--+++
--+-++
-+-+--
---+--
++---+
-++--+
-+---+
----++
--+---
--+++-
++--+-
---+--

Generation = 250, Population = 26.
-++---
--+++-
-----+
---+--
---++-
+-----
-+----
----++
-+++--
---+--
+++-+-
+-++++

Generation = 300, Population = 41.
--++-+
+++-+-
+-+---
++--++
-+-+++
--+-+-
+++-+-
+++--+
--+-++
+++-++
---++-
-++++-

Generation = 350, Population = 39.
++++++
----++
--++--
--++--
+--+--
+-+++-
++-+++
+--++-
--+-++
---+++
++-++-
-+-++-

Generation = 400, Population = 33.
+--++-
++----
++++--
++---+
-+--++
----++
---+++
++---+
-++++-
------
----++
+-++-+

*** Life<FredkinCell> 12x6 ***

Generation = 0, Population = 55.
00-000
000000
0-00-0
0-00--
0-0000
0-00-0
000000
-00-00
0000-0
0-00-0
0000-0
000--0

Generation = 50, Population = 40.
----+-
++++++
9+----
-+----
-++9+-
-+-+--
4-++6+
-+++-+
9---+-
-5++9+
8-+9-+
-+9+-+

Generation = 100, Population = 35.
-+-+-+
-++-+-
-+-+-+
---+++
---+++
+-++--
--+--+
-++-++
-++---
++--+-
-+---+
-+-+++

Generation = 150, Population = 38.
-+-+++
+-+-++
-+-+--
++---+
++-+-+
--+-++
-++-+-
-+-+-+
--++++
------
--+-++
-+++++

Generation = 200, Population = 39.
+--+-+
-++--+
++-++-
-++++-
-+++-+
+-+---
-+---+
+-+-++
---+--
++-++-
+-++++
-+++--

Generation = 250, Population = 32.
--++++
--++--
---++-
--++--
+++-++
-+--++
+-+-+-
+-+---
---++-
----+-
--+++-
--++-+

Generation = 300, Population = 38.
-+++-+
-++-++
+-++-+
-+-+--
++--++
-++++-
-+--+-
++++++
-+----
-+---+
++-+--
+----+

Generation = 350, Population = 39.
++++++
+-+++-
+++---
--+--+
+--+--
--+++-
---++-
-++++-
++-+--
+-+-+-
+---++
+-+++-

Generation = 400, Population = 34.
---+-+
+--+-+
---++-
-+-+++
--+---
--++--
-+---+
+-++++
-+--++
--++++
-+-+++
-+---+

*** Life<FredkinCell> 12x6 ***

Generation = 0, Population = 53.
00---0
000000
000--0
000-00
00-00-
0000-0
-0-0-0
000000
0--000
000000
0---00
-00-00

Generation = 50, Population = 37.
--++--
+++---
+---++
+-9-++
+--++-
77-++-
9++-++
+-+---
+-+---
+---++
--+-++
---+++

Generation = 100, Population = 38.
+-----
+-+++-
--+--+
+++--+
++++-+
-++-+-
++++--
+++--+
++++--
---+-+
--+---
-++++-

Generation = 150, Population = 32.
-+--+-
--+-+-
++---+
--++--
-+++--
+-+-+-
+++--+
----+-
+++---
------
+++-+-
-+++++

Generation = 200, Population = 34.
++----
++++--
+-+-+-
----+-
---+-+
+--+++
-+++++
++-+--
+--+--
---++-
-+--+-
+-++-+

Generation = 250, Population = 38.
++--+-
--++++
+--+++
-----+
++++++
++---+
----++
-+-+-+
+--+++
-++++-
-+----
-+-+-+

Generation = 300, Population = 37.
-+---+
--++++
-+++--
---++-
---+-+
++++-+
+-+++-
+-+-+-
+-++-+
-+-+++
-++---
-+---+

Generation = 350, Population = 32.
---+-+
++--+-
++---+
--+-+-
+--+-+
+----+
++----
++++-+
++-+-+
----+-
++-+--
++----

Generation = 400, Population = 35.
++-+-+
--+--+
-+++++
+-++-+
+++++-
-++-++
-+-+--
+-++--
-+--+-
----+-
+-----
+--+--
