*** Life<ConwayCell> 12x6 ***

Generation = 0, Population = 52.
******
******
****..
*.*.**
.*.*.*
*..***
**.**.
**.***
.*..*.
.*..**
***.**
******

Generation = 50, Population = 0.
......
......
......
......
......
......
......
......
......
......
......
......

Generation = 100, Population = 0.
......
......
......
......
......
......
......
......
......
......
......
......

Generation = 150, Population = 0.
......
......
......
......
......
......
......
......
......
......
......
......

Generation = 200, Population = 0.
......
......
......
......
......
......
......
......
......
......
......
......

Generation = 250, Population = 0.
......
......
......
......
......
......
......
......
......
......
......
......

Generation = 300, Population = 0.
......
......
......
......
......
......
......
......
......
......
......
......

Generation = 350, Population = 0.
......
......
......
......
......
......
......
......
......
......
......
......

Generation = 400, Population = 0.
......
......
......
......
......
......
......
......
......
......
......
......

*** Life<ConwayCell> 12x6 ***

Generation = 0, Population = 54.
*.****
***.**
**..**
******
******
.*.*.*
*****.
*.**..
*.**.*
*.....
******
******

Generation = 50, Population = 4.
......
......
......
......
......
......
......
......
......
......
...**.
...**.

Generation = 100, Population = 4.
......
......
......
......
......
......
......
......
......
......
...**.
...**.

Generation = 150, Population = 4.
......
......
......
......
......
......
......
......
......
......
...**.
...**.

Generation = 200, Population = 4.
......
......
......
......
......
......
......
......
......
......
...**.
...**.

Generation = 250, Population = 4.
......
......
......
......
......
......
......
......
......
......
...**.
...**.

Generation = 300, Population = 4.
......
......
......
......
......
......
......
......
......
......
...**.
...**.

Generation = 350, Population = 4.
......
......
......
......
......
......
......
......
......
......
...**.
...**.

Generation = 400, Population = 4.
......
......
......
......
......
......
......
......
......
......
...**.
...**.

*** Life<ConwayCell> 12x6 ***

Generation = 0, Population = 53.
******
***..*
****..
******
****.*
**.***
**..*.
..*.**
*..**.
****.*
.*****
*.*.**

Generation = 50, Population = 0.
......
......
......
......
......
......
......
......
......
......
......
......

Generation = 100, Population = 0.
......
......
......
......
......
......
......
......
......
......
......
......

Generation = 150, Population = 0.
......
......
......
......
......
......
......
......
......
......
......
......

Generation = 200, Population = 0.
......
......
......
......
......
......
......
......
......
......
......
......

Generation = 250, Population = 0.
......
......
......
......
......
......
......
......
......
......
......
......

Generation = 300, Population = 0.
......
......
......
......
......
......
......
......
......
......
......
......

Generation = 350, Population = 0.
......
......
......
......
......
......
......
......
......
......
......
......

Generation = 400, Population = 0.
......
......
......
......
......
......
......
......
......
......
......
......

*** Life<ConwayCell> 12x6 ***

Generation = 0, Population = 58.
*.****
*.****
**.***
*..***
******
****.*
****.*
******
.**.*.
*****.
**.***
.***.*

Generation = 50, Population = 0.
......
......
......
......
......
......
......
......
......
......
......
......

Generation = 100, Population = 0.
......
......
......
......
......
......
......
......
......
......
......
......

Generation = 150, Population = 0.
......
......
......
......
......
......
......
......
......
......
......
......

Generation = 200, Population = 0.
......
......
......
......
......
......
......
......
......
......
......
......

Generation = 250, Population = 0.
......
......
......
......
......
......
......
......
......
......
......
......

Generation = 300, Population = 0.
......
......
......
......
......
......
......
......
......
......
......
......

Generation = 350, Population = 0.
......
......
......
......
......
......
......
......
......
......
......
......

Generation = 400, Population = 0.
......
......
......
......
......
......
......
......
......
......
......
......

*** Life<ConwayCell> 12x6 ***

Generation = 0, Population = 54.
**.***
..****
*****.
******
***.**
******
..**.*
**..**
**.**.
..****
***...
*.****

Generation = 50, Population = 4.
......
......
......
......
......
......
......
......
......
......
...**.
...**.

Generation = 100, Population = 4.
......
......
......
......
......
......
......
......
......
......
...**.
...**.

Generation = 150, Population = 4.
......
......
......
......
......
......
......
......
......
......
...**.
...**.

Generation = 200, Population = 4.
......
......
......
......
......
......
......
......
......
......
...**.
...**.

Generation = 250, Population = 4.
......
......
......
......
......
......
......
......
......
......
...**.
...**.

Generation = 300, Population = 4.
......
......
......
......
......
......
......
......
......
......
...**.
...**.

Generation = 350, Population = 4.
......
......
......
......
......
......
......
......
......
......
...**.
...**.

Generation = 400, Population = 4.
......
......
......
......
......
......
......
......
......
......
...**.
...**.

*** Life<ConwayCell> 12x6 ***

Generation = 0, Population = 51.
*.*.**
*...**
**.***
...*.*
*.****
**.***
******
***.*.
**.*..
******
**...*
.*****

Generation = 50, Population = 15.
.**.**
....**
....**
.**...
.*..*.
..**..
..*...
......
......
......
......
......

Generation = 100, Population = 0.
......
......
......
......
......
......
......
......
......
......
......
......

Generation = 150, Population = 0.
......
......
......
......
......
......
......
......
......
......
......
......

Generation = 200, Population = 0.
......
......
......
......
......
......
......
......
......
......
......
......

Generation = 250, Population = 0.
......
......
......
......
......
......
......
......
......
......
......
......

Generation = 300, Population = 0.
......
......
......
......
......
......
......
......
......
......
......
......

Generation = 350, Population = 0.
......
......
......
......
......
......
......
......
......
......
......
......

Generation = 400, Population = 0.
......
......
......
......
......
......
......
......
......
......
......
......

*** Life<ConwayCell> 12x6 ***

Generation = 0, Population = 53.
*.**.*
*.*.**
***.*.
**.***
**.***
.****.
***.**
****..
.*****
.*.***
***.**
**.*.*

Generation = 50, Population = 0.
......
......
......
......
......
......
......
......
......
......
......
......

Generation = 100, Population = 0.
......
......
......
......
......
......
......
......
......
......
......
......

Generation = 150, Population = 0.
......
......
......
......
......
......
......
......
......
......
......
......

Generation = 200, Population = 0.
......
......
......
......
......
......
......
......
......
......
......
......

Generation = 250, Population = 0.
......
......
......
......
......
......
......
......
......
......
......
......

Generation = 300, Population = 0.
......
......
......
......
......
......
......
......
......
......
......
......

Generation = 350, Population = 0.
......
......
......
......
......
......
......
......
......
......
......
......

Generation = 400, Population = 0.
......
......
......
......
......
......
......
......
......
......
......
......

*** Life<ConwayCell> 12x6 ***

Generation = 0, Population = 52.
******
******
.**.**
******
..*...
*.****
.****.
*.*..*
.***.*
****.*
.**.*.
****.*

Generation = 50, Population = 0.
......
......
......
......
......
......
......
......
......
......
......
......

Generation = 100, Population = 0.
......
......
......
......
......
......
......
......
......
......
......
......

Generation = 150, Population = 0.
......
......
......
......
......
......
......
......
......
......
......
......

Generation = 200, Population = 0.
......
......
......
......
......
......
......
......
......
......
......
......

Generation = 250, Population = 0.
......
......
......
......
......
......
......
......
......
......
......
......

Generation = 300, Population = 0.
......
......
......
......
......
......
......
......
......
......
......
......

Generation = 350, Population = 0.
......
......
......
......
......
......
......
......
......
......
......
......

Generation = 400, Population = 0.
......
......
......
......
......
......
......
......
......
......
......
......

*** Life<ConwayCell> 12x6 ***

Generation = 0, Population = 55.
**.***
******
*.**.*
*.**..
*.****
*.**.*
******
.**.**
****.*
*.**.*
****.*
***..*

Generation = 50, Population = 4.
......
......
......
......
......
......
......
......
......
....**
....**
......

Generation = 100, Population = 4.
......
......
......
......
......
......
......
......
......
....**
....**
......

Generation = 150, Population = 4.
......
......
......
......
......
......
......
......
......
....**
....**
......

Generation = 200, Population = 4.
......
......
......
......
......
......
......
......
......
....**
....**
......

Generation = 250, Population = 4.
......
......
......
......
......
......
......
......
......
....**
....**
......

Generation = 300, Population = 4.
......
......
......
......
......
......
......
......
......
....**
....**
......

Generation = 350, Population = 4.
......
......
......
......
......
......
......
......
......
....**
....**
......

Generation = 400, Population = 4.
......
......
......
......
......
......
......
......
......
....**
....**
......

*** Life<ConwayCell> 12x6 ***

Generation = 0, Population = 53.
**...*
******
***..*
***.**
**.**.
****.*
.*.*.*
******
*..***
******
*...**
.**.**

Generation = 50, Population = 0.
......
......
......
......
......
......
......
......
......
......
......
......

Generation = 100, Population = 0.
......
......
......
......
......
......
......
......
......
......
......
......

Generation = 150, Population = 0.
......
......
......
......
......
......
......
......
......
......
......
......

Generation = 200, Population = 0.
......
......
......
......
......
......
......
......
......
......
......
......

Generation = 250, Population = 0.
......
......
......
......
......
......
......
......
......
......
......
......

Generation = 300, Population = 0.
......
......
......
......
......
......
......
......
......
......
......
......

Generation = 350, Population = 0.
......
......
......
......
......
......
......
......
......
......
......
......

Generation = 400, Population = 0.
......
......
......
......
......
......
......
......
......
......
......
......
